{
    "data": {
        "count": 153,
        "current": 6,
        "limit": 10,
        "list": [
            {
                "amount": "5,000,000.00",
                "amountBalance": "5,000,000.00",
                "biddingCount": "0",
                "borrowerName": "测***",
                "deadLineDate": "1438272000000",
                "description": "test",
                "guarantee": "tes",
                "productUrl": "/test_productUrl_a",
                "href": "/investment/toInvestment?projectId=1",
                "id": "19",
                "idNo": "110************111",
                "interest": "10.0",
                "investmentAmount": ".00",
                "mobile": "139****3554",
                "mortgage": "test",
                "period": "90天",
                "periodDays": "90",
                "progress": "0.0",
                "projectId": "1",
                "projectName": "精通项目1",
                "projectStatus": "IPB",
                "projectType": "普通推荐",
                "purpose": "test",
                "repaymentTypeName": "到期还本付息",
                "source": "3"
            },
             {
                "amount": "5,000,000.00",
                "amountBalance": "5,000,000.00",
                "biddingCount": "0",
                "borrowerName": "测***",
                "deadLineDate": "1438272000000",
                "description": "test",
                "guarantee": "tes",
                "productUrl": "/test_productUrl_b",
                "href": "/investment/toInvestment?projectId=1",
                "id": "19",
                "idNo": "110************111",
                "interest": "10.0",
                "investmentAmount": ".00",
                "mobile": "139****3554",
                "mortgage": "test",
                "period": "90天",
                "periodDays": "90",
                "progress": "0.0",
                "projectId": "1",
                "projectName": "精通项目1",
                "projectStatus": "IPB",
                "projectType": "普通推荐",
                "purpose": "test",
                "repaymentTypeName": "到期还本付息",
                "source": "3"
            },
            {
                "amount": "10,000.00",
                "amountBalance": "10,000.00",
                "biddingCount": "0",
                "borrowerName": "测***",
                "deadLineDate": "1436198400000",
                "description": "1",
                "guarantee": "1",
                "href": "/investment/toInvestment?projectId=6",
                "id": "20",
                "idNo": "110************111",
                "interest": "9.0",
                "investmentAmount": ".00",
                "mobile": "139****3554",
                "mortgage": "1",
                "period": "30",
                "periodDays": "30",
                "progress": "0.0",
                "projectId": "6",
                "projectName": "TEST-ZYQ-3",
                "projectStatus": "IPB",
                "projectType": "普通推荐",
                "purpose": "1",
                "repaymentTypeName": "到期还本付息",
                "source": "1"
            },
            {
                "amount": "10,000.00",
                "amountBalance": "5,000.00",
                "biddingCount": "1",
                "borrowerName": "测***",
                "deadLineDate": "1436198400000",
                "description": "1",
                "guarantee": "1",
                "href": "/investment/toInvestment?projectId=5",
                "id": "21",
                "idNo": "110************111",
                "interest": "9.0",
                "investmentAmount": "5,000.00",
                "mobile": "139****3554",
                "mortgage": "1",
                "period": "30",
                "periodDays": "30",
                "progress": "50.0",
                "projectId": "5",
                "projectName": "TEST-ZYQ-3",
                "projectStatus": "IPB",
                "projectType": "普通推荐",
                "purpose": "1",
                "repaymentTypeName": "到期还本付息",
                "source": "1"
            },
            {
                "amount": "5,000,000.00",
                "amountBalance": "5,000,000.00",
                "biddingCount": "0",
                "borrowerName": "测***",
                "deadLineDate": "1438272000000",
                "description": "test",
                "guarantee": "tes",
                "href": "/investment/toInvestment?projectId=1",
                "id": "19",
                "idNo": "110************111",
                "interest": "10.0",
                "investmentAmount": ".00",
                "mobile": "139****3554",
                "mortgage": "test",
                "period": "90天",
                "periodDays": "90",
                "progress": "0.0",
                "projectId": "1",
                "projectName": "精通项目1",
                "projectStatus": "IPB",
                "projectType": "普通推荐",
                "purpose": "test",
                "repaymentTypeName": "到期还本付息",
                "source": "1"
            },
            {
                "amount": "10,000.00",
                "amountBalance": "10,000.00",
                "biddingCount": "0",
                "borrowerName": "测***",
                "deadLineDate": "1436198400000",
                "description": "1",
                "guarantee": "1",
                "href": "/investment/toInvestment?projectId=6",
                "id": "20",
                "idNo": "110************111",
                "interest": "9.0",
                "investmentAmount": ".00",
                "mobile": "139****3554",
                "mortgage": "1",
                "period": "30",
                "periodDays": "30",
                "progress": "0.0",
                "projectId": "6",
                "projectName": "TEST-ZYQ-3",
                "projectStatus": "IPB",
                "projectType": "普通推荐",
                "purpose": "1",
                "repaymentTypeName": "到期还本付息",
                "source": "1"
            },
            {
                "amount": "10,000.00",
                "amountBalance": "5,000.00",
                "biddingCount": "1",
                "borrowerName": "测***",
                "deadLineDate": "1436198400000",
                "description": "1",
                "guarantee": "1",
                "href": "/investment/toInvestment?projectId=5",
                "id": "21",
                "idNo": "110************111",
                "interest": "9.0",
                "investmentAmount": "5,000.00",
                "mobile": "139****3554",
                "mortgage": "1",
                "period": "30",
                "periodDays": "30",
                "progress": "50.0",
                "projectId": "5",
                "projectName": "TEST-ZYQ-3",
                "projectStatus": "IPB",
                "projectType": "普通推荐",
                "purpose": "1",
                "repaymentTypeName": "到期还本付息",
                "source": "1"
            }
        ],
        "total": 15
    },
    "message": "success",
    "status": 0
}